…
``` r
# get the plots for those departments
ffi_selected_plots <- show_plots_from(
  inventory = "FFI",
  folder = ffi_folder,
  departments = c("66", "11")
)
ffi_selected_plots
#> Simple feature collection with 3830 features and 3 fields
#> Geometry type: POINT
#> Dimension:     XY
#> Bounding box:  xmin: 1.711533 ymin: 42.34551 xmax: 3.186679 ymax: 43.45049
#> Geodetic CRS:  WGS 84
#> # A tibble: 3,830 × 4
#>    CAMPAGNE   IDP DEP              geometry
#>  *    <int> <int> <chr>         <POINT [°]>
#>  1     2005   132 11    (2.008273 43.05466)
#>  2     2005   257 66    (2.545421 42.53404)
#>  3     2005   405 11     (2.424819 43.0731)
#>  4     2005   909 11    (2.204115 43.12696)
#>  5     2005  1061 66    (2.375614 42.78569)
#>  6     2005  1203 11     (2.326722 43.3966)
#>  7     2005  1236 11    (1.908529 43.28791)
#>  8     2005  1949 66    (2.156803 42.57001)
#>  9     2005  2905 11     (2.62124 43.14463)
#> 10     2005  2922 11    (3.186679 43.21353)
#> # ℹ 3,820 more rows
```

These are all the plots present in those departments for all years, but
we want 2012 plots, so we filter the results by campaign year:

``` r
ffi_selected_plots <- ffi_selected_plots |>
  filter(CAMPAGNE == 2012)
ffi_selected_plots
#> Simple feature collection with 275 features and 3 fields
#> Geometry type: POINT
#> Dimension:     XY
#> Bounding box:  xmin: 1.711729 ymin: 42.3546 xmax: 3.186413 ymax: 43.43249
#> Geodetic CRS:  WGS 84
#> # A tibble: 275 × 4
#>    CAMPAGNE    IDP DEP              geometry
#>  *    <int>  <int> <chr>         <POINT [°]>
#>  1     2012 200809 11    (2.595977 42.98299)
#>  2     2012 201113 11     (2.547623 43.1448)
#>  3     2012 201148 66    (2.253964 42.58809)
#>  4     2012 201585 11    (2.670319 43.14449)
#>  5     2012 201971 11    (2.523783 43.36049)
#>  6     2012 202180 11     (2.40033 43.09108)
#>  7     2012 202822 11     (2.351273 42.9833)
#>  8     2012 203283 11    (2.302064 43.41457)
#>  9     2012 204589 11     (2.057275 43.0548)
#> 10     2012 209775 11    (2.522623 43.00111)
#> # ℹ 265 more rows
```
…
# get the data for the selected plots
ffi_data_2012 <- ffi_to_tibble(
  departments = c("66", "11"),
  years = 2012,
  filter_list = ffi_filter_list,
  folder = ffi_folder
)
#> Start
#> ℹ Processing 1 year
#> Getting ready to retrieve 208 plots for 2012

ffi_data_2012
#> # A tibble: 208 × 16
#>    id_unique_code  year plot  coordx coordy coord_sys   crs aspect slope country
#>    <chr>          <dbl> <chr>  <dbl>  <dbl> <chr>     <dbl>  <dbl> <int> <chr>  
#>  1 FR_11_200809    2012 2008… 6.67e5 6.21e6 LAMBERT    2154  162      15 FR     
#>  2 FR_11_201113    2012 2011… 6.63e5 6.23e6 LAMBERT    2154   22.5    40 FR     
#>  3 FR_11_201971    2012 2019… 6.61e5 6.25e6 LAMBERT    2154  151.     10 FR     
#>  4 FR_11_202180    2012 2021… 6.51e5 6.22e6 LAMBERT    2154  236.     52 FR     
#>  5 FR_11_202822    2012 2028… 6.47e5 6.21e6 LAMBERT    2154  176.     25 FR     
#>  6 FR_11_203283    2012 2032… 6.43e5 6.26e6 LAMBERT    2154  311.      8 FR     
#>  7 FR_11_204589    2012 2045… 6.23e5 6.22e6 LAMBERT    2154  279      16 FR     
#>  8 FR_11_209775    2012 2097… 6.61e5 6.21e6 LAMBERT    2154   19.8    36 FR     
#>  9 FR_11_213434    2012 2134… 6.57e5 6.20e6 LAMBERT    2154  328.      7 FR     
#> 10 FR_11_217286    2012 2172… 6.41e5 6.25e6 LAMBERT    2154   NA       0 FR     
#> # ℹ 198 more rows
#> # ℹ 6 more variables: dep <chr>, dep_name <chr>, visite <int>, tree <list>,
#> #   understory <list>, regen <list>
```
…
# get the plots for those departments
hawaii_plots_2019 <- show_plots_from(
  inventory = "FIA",
  folder = fia_folder,
  states = "HI"
) |>
  filter(INVYR == 2019)
hawaii_plots_2019
#> Simple feature collection with 1177 features and 5 fields
#> Geometry type: POINT
#> Dimension:     XY
#> Bounding box:  xmin: -160.2893 ymin: 18.87413 xmax: -154.7896 ymax: 22.26451
#> Geodetic CRS:  WGS 84
#> # A tibble: 1,177 × 6
#>    INVYR STATECD COUNTYCD  PLOT STATEAB             geometry
#>  * <int>   <int>    <int> <int> <chr>            <POINT [°]>
#>  1  2019      15        1  2125 HI       (-155.875 20.29327)
#>  2  2019      15        1  2127 HI      (-155.8317 20.27703)
#>  3  2019      15        1  2130 HI      (-155.7942 20.26314)
#>  4  2019      15        1  2133 HI      (-155.7351 20.26385)
#>  5  2019      15        1  2137 HI      (-155.9226 20.24566)
#>  6  2019      15        1  2140 HI      (-155.8627 20.23504)
#>  7  2019      15        1  2143 HI      (-155.8276 20.23026)
#>  8  2019      15        1  2146 HI      (-155.7559 20.21695)
#>  9  2019      15        1  2149 HI      (-155.7324 20.21962)
#> 10  2019      15        1  2150 HI      (-155.9376 20.22124)
#> # ℹ 1,167 more rows
```
…
